<svg xmlns="http://www.w3.org/2000/svg" xmlns:xlink="http://www.w3.org/1999/xlink" version="1.1" id="圖層_1" x="0px" y="0px" width="175px" height="100px" viewBox="0 0 175 100" xml:space="preserve" enable-background="new 0 0 175 100">
  <style type="text/css">
    
	.st0{fill:#0071AB;}
	.st1{fill:#72AE2D;}

  </style>
  <g>
    <g>
      <path class="st0" d="M52.768 40.726c0-0.407 0.187-0.775 0.56-1.104 0.373-0.328 0.866-0.492 1.477-0.492h5.093c1.403 0 2.597 0.17 3.582 0.509 0.985 0.339 1.788 0.793 2.411 1.358 0.622 0.566 1.075 1.205 1.358 1.918 0.283 0.713 0.424 1.455 0.424 2.224v0.238c0 0.996-0.232 1.867-0.696 2.614 -0.464 0.747-1.239 1.347-2.326 1.8 1.448 0.43 2.438 1.075 2.971 1.935 0.532 0.86 0.798 1.856 0.798 2.988v0.238c0 0.77-0.119 1.511-0.356 2.224 -0.238 0.713-0.651 1.341-1.239 1.884 -0.589 0.543-1.387 0.979-2.394 1.307 -1.007 0.328-2.281 0.492-3.82 0.492h-5.806c-0.611 0-1.104-0.192-1.477-0.577 -0.373-0.384-0.56-0.781-0.56-1.188V40.726zM56.74 42.525v5.874h3.87c1.041-0.09 1.822-0.368 2.343-0.832 0.52-0.463 0.781-1.058 0.781-1.783v-0.645c0-0.815-0.317-1.454-0.951-1.918 -0.634-0.464-1.596-0.696-2.886-0.696H56.74zM56.74 57.6h3.87c1.29 0 2.252-0.249 2.886-0.747 0.634-0.498 0.951-1.154 0.951-1.969v-0.509c0-0.815-0.301-1.494-0.9-2.037 -0.6-0.543-1.578-0.815-2.937-0.815h-3.87V57.6z"/>
      <path class="st0" d="M72.663 40.386c0-0.408 0.181-0.775 0.543-1.104 0.362-0.328 0.86-0.492 1.494-0.492 0.565 0 1.03 0.164 1.392 0.492 0.362 0.328 0.543 0.696 0.543 1.104v19.183c0 0.407-0.181 0.776-0.543 1.103C75.73 61 75.266 61.165 74.7 61.165c-0.634 0-1.132-0.164-1.494-0.493 -0.362-0.328-0.543-0.696-0.543-1.103V40.386z"/>
      <path class="st0" d="M89.3 51.217c0-0.52 0.164-0.944 0.492-1.273 0.328-0.328 0.764-0.492 1.307-0.492h4.176c0.634 0 1.115 0.136 1.443 0.407 0.328 0.271 0.492 0.713 0.492 1.324v6.62c-0.271 0.453-0.6 0.883-0.984 1.29 -0.385 0.407-0.86 0.77-1.426 1.086 -0.566 0.317-1.239 0.566-2.02 0.747 -0.781 0.181-1.715 0.272-2.801 0.272 -1.404 0-2.643-0.216-3.718-0.645 -1.076-0.43-1.981-1.019-2.716-1.765 -0.736-0.747-1.29-1.618-1.664-2.615 -0.373-0.996-0.56-2.059-0.56-3.191v-5.942c0-1.109 0.181-2.167 0.543-3.175 0.362-1.007 0.905-1.884 1.63-2.631 0.724-0.747 1.618-1.341 2.682-1.783 1.064-0.441 2.297-0.662 3.701-0.662 1.29 0 2.444 0.186 3.463 0.56 1.019 0.374 1.788 0.832 2.309 1.375 0.407 0.453 0.605 0.894 0.594 1.324 -0.012 0.43-0.164 0.787-0.458 1.069 -0.295 0.283-0.691 0.447-1.188 0.493 -0.498 0.045-1.007-0.102-1.528-0.442 -0.385-0.248-0.889-0.447-1.511-0.594 -0.623-0.147-1.194-0.221-1.715-0.221 -1.29 0-2.371 0.356-3.242 1.069 -0.872 0.713-1.307 1.839-1.307 3.378v6.451c0 0.747 0.119 1.398 0.357 1.952 0.237 0.555 0.571 1.013 1.002 1.375 0.43 0.362 0.922 0.628 1.477 0.798 0.554 0.17 1.159 0.255 1.816 0.255 0.657 0 1.183-0.051 1.579-0.153 0.395-0.102 0.775-0.255 1.137-0.459l0.611-0.441v-3.599h-2.173c-0.543 0-0.979-0.164-1.307-0.493C89.464 52.162 89.3 51.738 89.3 51.217z"/>
      <path class="st1" d="M114.288 39.13c0.656 0 1.148 0.164 1.477 0.492 0.328 0.328 0.493 0.776 0.493 1.341 0 0.521-0.164 0.945-0.493 1.273 -0.328 0.328-0.821 0.493-1.477 0.493h-4.448v16.874c0 0.408-0.175 0.776-0.526 1.104 -0.351 0.328-0.82 0.493-1.409 0.493 -0.634 0-1.132-0.165-1.494-0.493 -0.363-0.328-0.543-0.696-0.543-1.104V42.729h-4.007c-0.589 0-1.058-0.164-1.409-0.493 -0.351-0.328-0.526-0.752-0.526-1.273 0-0.566 0.175-1.013 0.526-1.341 0.351-0.328 0.82-0.492 1.409-0.492H114.288z"/>
      <path class="st1" d="M132.367 39.622c0.328 0.328 0.493 0.776 0.493 1.341 0 0.521-0.164 0.945-0.493 1.273 -0.328 0.328-0.81 0.493-1.443 0.493h-7.605v5.33h5.093c0.656 0 1.148 0.164 1.477 0.493 0.328 0.328 0.493 0.775 0.493 1.341 0 0.521-0.164 0.946-0.493 1.273 -0.328 0.328-0.82 0.493-1.477 0.493h-5.093v5.602h7.605c0.633 0 1.114 0.165 1.443 0.493 0.328 0.328 0.493 0.775 0.493 1.341 0 0.521-0.164 0.945-0.493 1.273 -0.328 0.328-0.81 0.492-1.443 0.492h-9.541c-0.611 0-1.104-0.164-1.477-0.492 -0.374-0.328-0.56-0.696-0.56-1.103V40.726c0-0.407 0.187-0.775 0.56-1.104 0.373-0.328 0.866-0.492 1.477-0.492h9.541C131.558 39.13 132.039 39.294 132.367 39.622z"/>
      <path class="st1" d="M136.934 40.726c0-0.407 0.187-0.775 0.56-1.104 0.373-0.328 0.866-0.492 1.477-0.492h4.787c1.516 0 2.807 0.158 3.87 0.475 1.064 0.317 1.918 0.764 2.563 1.341 0.645 0.577 1.114 1.268 1.409 2.071 0.294 0.804 0.441 1.703 0.441 2.699v0.238c0 1.154-0.266 2.145-0.798 2.971 -0.532 0.827-1.466 1.489-2.801 1.986l3.768 7.707c0.249 0.317 0.283 0.708 0.102 1.171 -0.181 0.464-0.532 0.855-1.053 1.171 -0.498 0.249-0.984 0.311-1.46 0.187 -0.475-0.125-0.815-0.356-1.019-0.696l-3.803-8.149c-0.181 0.023-0.373 0.034-0.577 0.034 -0.204 0-0.419 0-0.645 0h-2.852v7.333c0 0.408-0.176 0.764-0.526 1.07 -0.351 0.306-0.821 0.458-1.409 0.458 -0.611 0-1.104-0.181-1.477-0.543 -0.374-0.362-0.56-0.747-0.56-1.154V40.726zM140.906 42.525v6.552h2.852c1.539 0 2.643-0.26 3.31-0.781 0.667-0.52 1.002-1.188 1.002-2.003v-0.645c0-0.973-0.334-1.737-1.002-2.292 -0.668-0.554-1.771-0.832-3.31-0.832H140.906z"/>
      <path class="st1" d="M172.447 58.992c0.113 0.385 0.045 0.787-0.204 1.205 -0.25 0.419-0.679 0.707-1.29 0.865 -0.566 0.136-1.069 0.09-1.511-0.136 -0.442-0.226-0.719-0.531-0.832-0.917l-1.222-3.938h-7.401l-1.256 3.973c-0.136 0.385-0.425 0.691-0.866 0.917 -0.441 0.226-0.934 0.272-1.477 0.136 -0.611-0.159-1.047-0.447-1.307-0.866 -0.261-0.418-0.334-0.82-0.221-1.205l6.655-18.81c0.113-0.385 0.368-0.718 0.764-1.002 0.396-0.283 0.877-0.424 1.443-0.424 0.543 0 1.019 0.141 1.426 0.424 0.407 0.283 0.667 0.617 0.781 1.002L172.447 58.992zM161.039 52.745h5.297l-2.615-8.42L161.039 52.745z"/>
    </g>
    <g>
      <circle class="st1" cx="7.787" cy="36.207" r="5.287"/>
      <circle class="st1" cx="23.205" cy="36.207" r="5.287"/>
      <circle class="st1" cx="38.623" cy="36.207" r="5.287"/>
      <circle class="st0" cx="7.787" cy="63.793" r="5.287"/>
      <circle class="st0" cx="7.787" cy="50" r="5.287"/>
      <circle class="st0" cx="23.205" cy="63.793" r="5.287"/>
      <circle class="st0" cx="23.205" cy="50" r="5.287"/>
      <circle class="st0" cx="38.623" cy="63.793" r="5.287"/>
      <circle class="st0" cx="38.623" cy="50" r="5.287"/>
    </g>
  </g>
</svg>
